<svg width="58" height="58" viewBox="0 0 58 58" fill="none" xmlns="http://www.w3.org/2000/svg">
<path d="M1.57571 1.07205C1.74617 1.00064 1.93406 0.981772 2.11531 1.01786C2.29657 1.05394 2.46291 1.14334 2.59302 1.27458L29.9326 28.6142V2.86775C29.9326 2.37269 30.1293 1.89791 30.4793 1.54785C30.8294 1.19779 31.3042 1.00112 31.7992 1.00112H46.7323C47.2273 1.00112 47.7021 1.19779 48.0522 1.54785C48.4022 1.89791 48.5989 2.37269 48.5989 2.86775V47.2805L56.7253 55.4068C56.8558 55.5374 56.9446 55.7036 56.9806 55.8847C57.0166 56.0657 56.9981 56.2533 56.9275 56.4238C56.8569 56.5943 56.7373 56.7401 56.5838 56.8426C56.4304 56.9452 56.25 57 56.0654 57H2.86648C2.37142 57 1.89664 56.8033 1.54657 56.4533C1.19651 56.1032 0.999855 55.6284 0.999855 55.1334V1.93444C0.999805 1.74986 1.05449 1.56941 1.15699 1.41591C1.25949 1.26241 1.4052 1.14275 1.57571 1.07205ZM46.7323 2.86775H31.7992V6.60101H36.4658V8.46764H31.7992V12.2009H36.4658V14.0675H31.7992V17.8008H36.4658V19.6674H31.7992V23.4007H36.4658V25.2673H31.7992V29.0006H39.2658V30.8672H32.1856L46.7323 45.4138V2.86775ZM6.59974 55.1334V53.2667H8.46637V55.1334H12.1996V53.2667H14.0663V55.1334H17.7995V53.2667H19.6661V55.1334H23.3994V51.4001H25.266V55.1334H28.9993V53.2667H30.8659V55.1334H34.5992V53.2667H36.4658V55.1334H40.1991V53.2667H42.0657V55.1334H45.799V53.2667H47.6656V55.1334H53.8124L2.86648 4.18746V10.3343H4.73311V12.2009H2.86648V15.9342H4.73311V17.8008H2.86648V21.534H4.73311V23.4007H2.86648V27.1339H4.73311V29.0006H2.86648V32.7338H6.59974V34.6004H2.86648V38.3337H4.73311V40.2003H2.86648V43.9336H4.73311V45.8002H2.86648V49.5335H4.73311V51.4001H2.86648V55.1334H6.59974Z" fill="#2761C7" stroke="white" stroke-width="0.4"/>
<path d="M10.9087 23.6051C11.0791 23.5334 11.2671 23.5144 11.4484 23.5505C11.6297 23.5866 11.7961 23.6762 11.926 23.8076L34.193 46.0737C34.3235 46.2043 34.4124 46.3705 34.4484 46.5516C34.4844 46.7326 34.4659 46.9202 34.3953 47.0907C34.3247 47.2612 34.2051 47.407 34.0516 47.5095C33.8982 47.6121 33.7178 47.6669 33.5332 47.6669H12.1995C11.7044 47.6669 11.2296 47.4702 10.8796 47.1202C10.5295 46.7701 10.3329 46.2953 10.3329 45.8003V24.4675C10.3328 24.2829 10.3875 24.1025 10.49 23.949C10.5925 23.7955 10.7382 23.6758 10.9087 23.6051ZM12.1995 45.8003H31.2802L12.1995 26.7205V45.8003Z" fill="#2761C7" stroke="white" stroke-width="0.4"/>
</svg>
