<svg width="24" height="16" viewBox="0 0 24 16" fill="none" xmlns="http://www.w3.org/2000/svg">
<path d="M1.70058 0C0.774452 0 0 0.766786 0 1.71429V14.2857C0 15.2332 0.774452 16 1.70058 16H22.2994C23.2255 16 24 15.2332 24 14.2857V1.71429C24 0.766786 23.2255 0 22.2994 0H1.70058ZM1.98837 1.14286H22.0116L12.4884 9.85714C12.2509 10.0744 11.7491 10.0744 11.5116 9.85714L1.98837 1.14286ZM1.11628 1.875L8.0843 8.25L1.11628 14.1607V1.875ZM22.8837 1.875V14.1607L15.9157 8.25L22.8837 1.875ZM8.93023 9.02677L10.7703 10.7053C11.4682 11.3439 12.5318 11.3439 13.2297 10.7053L15.0698 9.02677L21.9506 14.8571H2.04942L8.93023 9.02677Z" fill="white"/>
</svg>
