<svg width="20" height="13" viewBox="0 0 20 13" fill="none" xmlns="http://www.w3.org/2000/svg">
<path d="M1.41715 0C0.645377 0 0 0.623013 0 1.39286V11.6071C0 12.377 0.645377 13 1.41715 13H18.5828C19.3546 13 20 12.377 20 11.6071V1.39286C20 0.623013 19.3546 0 18.5828 0H1.41715ZM1.65698 0.928571H18.343L10.407 8.00893C10.2091 8.18547 9.79092 8.18547 9.59302 8.00893L1.65698 0.928571ZM0.930233 1.52344L6.73692 6.70312L0.930233 11.5056V1.52344ZM19.0698 1.52344V11.5056L13.2631 6.70312L19.0698 1.52344ZM7.44186 7.33425L8.97529 8.69809C9.55684 9.2169 10.4432 9.2169 11.0247 8.69809L12.5581 7.33425L18.2922 12.0714H1.70785L7.44186 7.33425Z" fill="#2761C7"/>
</svg>
